GROUP,PACKAGE,CLASS,INSTRUCTION_MISSED,INSTRUCTION_COVERED,BRANCH_MISSED,BRANCH_COVERED,LINE_MISSED,LINE_COVERED,COMPLEXITY_MISSED,COMPLEXITY_COVERED,METHOD_MISSED,METHOD_COVERED
AssessmentProject,com.epam.entities,Associate,0,52,0,0,0,9,0,15,0,15
AssessmentProject,com.epam.entities,Batch,12,41,0,0,3,17,2,12,2,12
AssessmentProject,com.epam.service,AssociateServiceImpl,0,110,0,0,0,19,0,9,0,9
AssessmentProject,com.epam.exceptions,ExceptionType,0,27,0,0,0,5,0,5,0,5
AssessmentProject,com.epam.exceptions,AssociateException,0,4,0,0,0,2,0,1,0,1
AssessmentProject,com.epam.exceptions,AssessmentExceptionHandler,45,48,0,0,12,11,3,4,3,4
AssessmentProject,com.epam,AssessmentProjectApplication,5,7,0,0,2,2,1,2,1,2
AssessmentProject,com.epam.controller,AssociateController,0,52,0,0,0,11,0,6,0,6
AssessmentProject,com.epam.dtos,AssociateDto,0,52,0,0,0,3,0,15,0,15
AssessmentProject,com.epam.dtos,BatchDto,15,23,0,0,1,2,5,6,5,6
